%YAML 1.1
%TAG !u! tag:unity3d.com,2011:
--- !u!114 &11400000
MonoBehaviour:
  m_ObjectHideFlags: 0
  m_CorrespondingSourceObject: {fileID: 0}
  m_PrefabInstance: {fileID: 0}
  m_PrefabAsset: {fileID: 0}
  m_GameObject: {fileID: 0}
  m_Enabled: 1
  m_EditorHideFlags: 0
  m_Script: {fileID: 11500000, guid: 0e3c411eb91066c4ebfe52e59cbafe95, type: 3}
  m_Name: Iron Boot
  m_EditorClassIdentifier: 
  displayName: Iron Boot
  icon: {fileID: 21300000, guid: 8507dd4ca40749d42beea03a8e41bd51, type: 3}
