%YAML 1.1
%TAG !u! tag:unity3d.com,2011:
--- !u!114 &11400000
MonoBehaviour:
  m_ObjectHideFlags: 0
  m_CorrespondingSourceObject: {fileID: 0}
  m_PrefabInstance: {fileID: 0}
  m_PrefabAsset: {fileID: 0}
  m_GameObject: {fileID: 0}
  m_Enabled: 1
  m_EditorHideFlags: 0
  m_Script: {fileID: 11500000, guid: 0e3c411eb91066c4ebfe52e59cbafe95, type: 3}
  m_Name: String
  m_EditorClassIdentifier: 
  displayName: String
  icon: {fileID: 21300000, guid: e2788c30c8a667b49b93d8c3aa9783a5, type: 3}
