%YAML 1.1
%TAG !u! tag:unity3d.com,2011:
--- !u!114 &11400000
MonoBehaviour:
  m_ObjectHideFlags: 0
  m_CorrespondingSourceObject: {fileID: 0}
  m_PrefabInstance: {fileID: 0}
  m_PrefabAsset: {fileID: 0}
  m_GameObject: {fileID: 0}
  m_Enabled: 1
  m_EditorHideFlags: 0
  m_Script: {fileID: 11500000, guid: 3bbd306a47353d448ae7ac47893cc0ad, type: 3}
  m_Name: Recipe for Chest
  m_EditorClassIdentifier: 
  ingredientList:
  - ingredient: {fileID: 11400000, guid: f24dc0ba32bed924991e5f1bbc23dbad, type: 2}
    amount: 4
  result: {fileID: 11400000, guid: c7b11f5b5fda8e8449517de68143449c, type: 2}
  amount: 1
